%YAML 1.1
%TAG !u! tag:unity3d.com,2011:
--- !u!21 &2100000
Material:
  serializedVersion: 6
  m_ObjectHideFlags: 0
  m_CorrespondingSourceObject: {fileID: 0}
  m_PrefabInstance: {fileID: 0}
  m_PrefabAsset: {fileID: 0}
  m_Name: CircleYes
  m_Shader: {fileID: -6465566751694194690, guid: f13f2285ce31baa469a545f2bf33c56c,
    type: 3}
  m_ShaderKeywords: ETC1_EXTERNAL_ALPHA
  m_LightmapFlags: 4
  m_EnableInstancingVariants: 0
  m_DoubleSidedGI: 0
  m_CustomRenderQueue: -1
  stringTagMap: {}
  disabledShaderPasses: []
  m_SavedProperties:
    serializedVersion: 3
    m_TexEnvs:
    - Texture2D_508C5ED6:
        m_Texture: {fileID: 2800000, guid: a39174533f41e0046a0e32c0e1f55766, type: 3}
        m_Scale: {x: 1, y: 1}
        m_Offset: {x: 0, y: 0}
    - _MainTex:
        m_Texture: {fileID: 2800000, guid: a39174533f41e0046a0e32c0e1f55766, type: 3}
        m_Scale: {x: 1, y: 1}
        m_Offset: {x: 0, y: 0}
    - _NotMainTex:
        m_Texture: {fileID: 2800000, guid: a39174533f41e0046a0e32c0e1f55766, type: 3}
        m_Scale: {x: 1, y: 1}
        m_Offset: {x: 0, y: 0}
    m_Floats:
    - Vector1_401700C4: 0
    - Vector1_995EA196: 0
    - Vector1_C2EB63BC: 2.36
    - Vector1_D9663195: 0
    m_Colors:
    - Color_890834E: {r: 1, g: 1, b: 1, a: 1}
    - Vector2_786DC011: {r: 0, g: 0, b: 0, a: 0}
