%YAML 1.1
%TAG !u! tag:unity3d.com,2011:
--- !u!21 &2100000
Material:
  serializedVersion: 6
  m_ObjectHideFlags: 0
  m_CorrespondingSourceObject: {fileID: 0}
  m_PrefabInstance: {fileID: 0}
  m_PrefabAsset: {fileID: 0}
  m_Name: Nonselected_OutlineSimple
  m_Shader: {fileID: -6465566751694194690, guid: 5a429ca3b3efe6949b993f0edcaf41c8,
    type: 3}
  m_ShaderKeywords: ETC1_EXTERNAL_ALPHA
  m_LightmapFlags: 4
  m_EnableInstancingVariants: 0
  m_DoubleSidedGI: 0
  m_CustomRenderQueue: -1
  stringTagMap: {}
  disabledShaderPasses: []
  m_SavedProperties:
    serializedVersion: 3
    m_TexEnvs:
    - _MainTex:
        m_Texture: {fileID: 0}
        m_Scale: {x: 1, y: 1}
        m_Offset: {x: 0, y: 0}
    m_Floats:
    - Vector1_4852D54C: 0.13
    - Vector1_5EB36ED7: 0.5
    m_Colors:
    - Color_36CDDE57: {r: 0, g: 0, b: 0, a: 1}
    - Color_8DE4E248: {r: 0, g: 2, b: 1.514395, a: 1}
